992
-88 896
272 -32 672
-80 -24 8 -16 -16 40 -24 728
-64 48 -80 -120 648
8 -16 -24 -32 -40 -48 56 -64 -72 80 -88 -96 -104 160
-64 -16 -16 -16 -16 -16 -64 -16 -64 632
-32 -24 -32 880
16 -32 -48 -16 -24 -56 8 -56 -24 -72 560
-80 -72 -72 -72 -72 24 -80 464
-128 -32 -64 16 -128 -32 88 -128 -96 208
-32 -48 -24 16 -72 -48 8 -24 -40 -8 -64 -32 -72 -8 -32 -32 -24 -80 184
